<?xml version="1.0" encoding="UTF-8" standalone="no"?>
<!-- Created with Inkscape (http://www.inkscape.org/) -->

<svg
   xmlns:dc="http://purl.org/dc/elements/1.1/"
   xmlns:cc="http://creativecommons.org/ns#"
   xmlns:rdf="http://www.w3.org/1999/02/22-rdf-syntax-ns#"
   xmlns:svg="http://www.w3.org/2000/svg"
   xmlns="http://www.w3.org/2000/svg"
   xmlns:sodipodi="http://sodipodi.sourceforge.net/DTD/sodipodi-0.dtd"
   xmlns:inkscape="http://www.inkscape.org/namespaces/inkscape"
   width="1280mm"
   height="968mm"
   viewBox="0 0 4535.433 3429.9213"
   id="svg2"
   version="1.1"
   inkscape:version="0.91 r13725"
   sodipodi:docname="bg-applications.svg">
  <defs
     id="defs4" />
  <sodipodi:namedview
     id="base"
     pagecolor="#ffffff"
     bordercolor="#666666"
     borderopacity="1.0"
     inkscape:pageopacity="0.0"
     inkscape:pageshadow="2"
     inkscape:zoom="0.12374369"
     inkscape:cx="1412.3449"
     inkscape:cy="2377.6168"
     inkscape:document-units="px"
     inkscape:current-layer="layer1"
     showgrid="false"
     inkscape:window-width="1366"
     inkscape:window-height="709"
     inkscape:window-x="0"
     inkscape:window-y="0"
     inkscape:window-maximized="1">
    <inkscape:grid
       type="xygrid"
       id="grid4855" />
  </sodipodi:namedview>
  <metadata
     id="metadata7">
    <rdf:RDF>
      <cc:Work
         rdf:about="">
        <dc:format>image/svg+xml</dc:format>
        <dc:type
           rdf:resource="http://purl.org/dc/dcmitype/StillImage" />
        <dc:title></dc:title>
      </cc:Work>
    </rdf:RDF>
  </metadata>
  <g
     inkscape:label="Layer 1"
     inkscape:groupmode="layer"
     id="layer1"
     transform="translate(0,2377.5591)">
    <g
       id="g4901"
       style="opacity:0.4510002"
       transform="matrix(-1.3435423,0.09632424,0.1300203,0.99535001,-576.6903,2324.7061)">
      <path
         sodipodi:nodetypes="ccccccsccssccccscccccccccccccccsc"
         inkscape:connector-curvature="0"
         id="path4709-7-5-3-5-2"
         d="m -1238.7023,-4049.0423 c 0.7127,1.6608 2.7628,5.5221 6.9902,12.3887 65.6722,121.8764 122.7455,248.3939 169.1738,378.6154 479.57383,1782.2656 -3159.3856,54.5789 -2228.3321,2109.1447 l 0.025,0.055 0.025,0.055 c 37.5631,81.5358 77.8334,161.837 120.8474,240.6649 5.925,10.8581 11.902,21.6882 17.9311,32.4898 l 91.3923,140.6947 c 3.741,0.9758 10.756,3.048 21.2364,-2.1231 10.4804,-5.1712 16.3768,-18.6589 16.8008,-25.2149 0.8479,-13.112 -2.2347,-13.9369 -3.2579,-16.0606 -1.0231,-2.1237 -1.7658,-3.3155 -2.4453,-4.418 -1.3455,-2.183 -2.4415,-3.7619 -3.1523,-4.8378 l -0.1231,-0.3047 -1.2402,-2.0469 c -75.0579,-123.8825 -142.7854,-252.1964 -203.4376,-383.832 l -0.029,-0.064 c -0.01,-0.016 -0.014,-0.031 -0.022,-0.047 -1029.7857,-1976.3772 2883.91093,-226.7602 2230.3664,-2104.1184 l -0.023,-0.066 -0.024,-0.066 c -47.5401,-133.3506 -105.9011,-262.6773 -172.9453,-387.0885 l -0.4726,-0.8789 -0.5313,-0.8457 c -1.5114,-2.4065 -4.2293,-12.1893 -15.0664,-24.1602 l -2.7344,-3.0195 -3.4414,-2.1816 m -1839.0952,2905.151 c 1.3107,0.6511 1.8372,1.1253 2.0586,1.2715 l -0.5195,-0.3438 -0.5352,-0.3222 c -0.3347,-0.2015 -0.6691,-0.404 -1.0039,-0.6055 z"
         style="color:#000000;font-style:normal;font-variant:normal;font-weight:normal;font-stretch:normal;font-size:medium;line-height:normal;font-family:sans-serif;text-indent:0;text-align:start;text-decoration:none;text-decoration-line:none;text-decoration-style:solid;text-decoration-color:#000000;letter-spacing:normal;word-spacing:normal;text-transform:none;direction:ltr;block-progression:tb;writing-mode:lr-tb;baseline-shift:baseline;text-anchor:start;white-space:normal;clip-rule:nonzero;display:inline;overflow:visible;visibility:visible;opacity:1;isolation:auto;mix-blend-mode:normal;color-interpolation:sRGB;color-interpolation-filters:linearRGB;solid-color:#000000;solid-opacity:1;fill:#a3a3a3;fill-opacity:1;fill-rule:evenodd;stroke:none;stroke-width:60.00000381;stroke-linecap:butt;stroke-linejoin:miter;stroke-miterlimit:4;stroke-dasharray:none;stroke-dashoffset:0;stroke-opacity:1;color-rendering:auto;image-rendering:auto;shape-rendering:auto;text-rendering:auto;enable-background:accumulate" />
      <path
         sodipodi:nodetypes="ccccccccccccccccccccc"
         inkscape:connector-curvature="0"
         id="path4709-7-5-3-6"
         d="m -3767.7263,-1418.6397 c -63.027,-154.4091 -110.0243,-315.7292 -123.6976,-480.4911 l 0,-0.018 0,-0.018 c -291.632,-1490.7134 2545.4348,-791.058 2107.2002,-2121.5666 l -0.029,-0.088 -0.029,-0.088 c -22.9248,-67.4226 -80.0078,-198.1406 -80.0078,-198.1406 l -0.01,0.01 -60.0412,-109.1401 -98.0254,-62.1035 -8e-4,0.01 55.6445,101.8301 c 1.2026,2.2007 2.4051,4.4013 3.6074,6.6015 48.4902,89.577 89.1364,183.5716 121.9844,280.1621 242.7051,1381.1021 -2236.2969,464.0564 -2110.0851,2107.5087 14.8129,178.4948 66.5795,350.8848 134.3535,513.7638 l 0.01,0.02 0.01,0.021 c 0.3207,0.7678 1.2785,4.7447 4.9804,11.2911 z"
         style="color:#000000;font-style:normal;font-variant:normal;font-weight:normal;font-stretch:normal;font-size:medium;line-height:normal;font-family:sans-serif;text-indent:0;text-align:start;text-decoration:none;text-decoration-line:none;text-decoration-style:solid;text-decoration-color:#000000;letter-spacing:normal;word-spacing:normal;text-transform:none;direction:ltr;block-progression:tb;writing-mode:lr-tb;baseline-shift:baseline;text-anchor:start;white-space:normal;clip-rule:nonzero;display:inline;overflow:visible;visibility:visible;opacity:1;isolation:auto;mix-blend-mode:normal;color-interpolation:sRGB;color-interpolation-filters:linearRGB;solid-color:#000000;solid-opacity:1;fill:#b7b7b7;fill-opacity:1;fill-rule:evenodd;stroke:none;stroke-width:1.00000012;stroke-linecap:butt;stroke-linejoin:miter;stroke-miterlimit:4;stroke-dasharray:none;stroke-dashoffset:0;stroke-opacity:1;color-rendering:auto;image-rendering:auto;shape-rendering:auto;text-rendering:auto;enable-background:accumulate" />
      <path
         sodipodi:nodetypes="ccccccccccccccccccccc"
         inkscape:connector-curvature="0"
         id="path4709-7-5-3"
         d="m -3790.0596,-1439.3591 c -63.027,-154.409 -110.0243,-315.7291 -123.6976,-480.491 l 0,-0.018 0,-0.018 c -291.632,-1490.7134 2545.4345,-791.058 2107.2,-2121.5665 l -0.029,-0.088 -0.029,-0.088 c -22.9248,-67.4226 -80.0078,-198.1406 -80.0078,-198.1406 l -0.01,0.01 -60.0412,-109.1401 -98.0254,-62.1035 -8e-4,0.01 55.6445,101.8301 c 1.2026,2.2007 2.4051,4.4013 3.6074,6.6015 48.4902,89.577 89.1364,183.5716 121.9844,280.1621 242.7051,1381.102 -2236.2967,464.0563 -2110.0849,2107.5086 14.8129,178.4948 66.5795,350.8848 134.3535,513.7637 l 0.01,0.02 0.01,0.021 c 0.3207,0.7678 1.2785,4.7447 4.9804,11.2911 z"
         style="color:#000000;font-style:normal;font-variant:normal;font-weight:normal;font-stretch:normal;font-size:medium;line-height:normal;font-family:sans-serif;text-indent:0;text-align:start;text-decoration:none;text-decoration-line:none;text-decoration-style:solid;text-decoration-color:#000000;letter-spacing:normal;word-spacing:normal;text-transform:none;direction:ltr;block-progression:tb;writing-mode:lr-tb;baseline-shift:baseline;text-anchor:start;white-space:normal;clip-rule:nonzero;display:inline;overflow:visible;visibility:visible;opacity:1;isolation:auto;mix-blend-mode:normal;color-interpolation:sRGB;color-interpolation-filters:linearRGB;solid-color:#000000;solid-opacity:1;fill:#dbdbdb;fill-opacity:1;fill-rule:evenodd;stroke:none;stroke-width:1.00000012;stroke-linecap:butt;stroke-linejoin:miter;stroke-miterlimit:4;stroke-dasharray:none;stroke-dashoffset:0;stroke-opacity:1;color-rendering:auto;image-rendering:auto;shape-rendering:auto;text-rendering:auto;enable-background:accumulate" />
      <path
         sodipodi:nodetypes="ccccccsccssccccscccccccccccccccsc"
         inkscape:connector-curvature="0"
         id="path4709-7-5-3-5"
         d="m -1259.3588,-4100.5854 c 0.7127,1.6608 2.7628,5.5221 6.9902,12.3887 65.6722,121.8764 122.7455,248.3939 169.1738,378.6154 479.57367,1782.2654 -3159.3853,54.5789 -2228.3319,2109.1445 l 0.025,0.055 0.025,0.055 c 37.5631,81.5358 77.8334,161.837 120.8474,240.6649 5.925,10.8581 11.902,21.6882 17.9311,32.4898 l 91.3923,140.6947 c 3.741,0.9758 10.756,3.048 21.2364,-2.1231 10.4804,-5.1712 16.3768,-18.6589 16.8008,-25.2149 0.8479,-13.112 -2.2347,-13.9369 -3.2579,-16.0606 -1.0231,-2.1237 -1.7658,-3.3155 -2.4453,-4.418 -1.3455,-2.183 -2.4415,-3.7619 -3.1523,-4.8378 l -0.1231,-0.3047 -1.2402,-2.0469 c -75.0579,-123.8825 -142.7854,-252.1964 -203.4376,-383.832 l -0.029,-0.064 c -0.01,-0.016 -0.014,-0.031 -0.022,-0.047 -1029.7856,-1976.377 2883.91055,-226.7602 2230.3662,-2104.1182 l -0.023,-0.066 -0.024,-0.066 c -47.5401,-133.3506 -105.9011,-262.6773 -172.9453,-387.0885 l -0.4726,-0.8789 -0.5313,-0.8457 c -1.5114,-2.4065 -4.2293,-12.1893 -15.0664,-24.1602 l -2.7344,-3.0195 -3.4414,-2.1816 m -1839.095,2905.1508 c 1.3107,0.6511 1.8372,1.1253 2.0586,1.2715 l -0.5195,-0.3438 -0.5352,-0.3222 c -0.3347,-0.2015 -0.6691,-0.404 -1.0039,-0.6055 z"
         style="color:#000000;font-style:normal;font-variant:normal;font-weight:normal;font-stretch:normal;font-size:medium;line-height:normal;font-family:sans-serif;text-indent:0;text-align:start;text-decoration:none;text-decoration-line:none;text-decoration-style:solid;text-decoration-color:#000000;letter-spacing:normal;word-spacing:normal;text-transform:none;direction:ltr;block-progression:tb;writing-mode:lr-tb;baseline-shift:baseline;text-anchor:start;white-space:normal;clip-rule:nonzero;display:inline;overflow:visible;visibility:visible;opacity:1;isolation:auto;mix-blend-mode:normal;color-interpolation:sRGB;color-interpolation-filters:linearRGB;solid-color:#000000;solid-opacity:1;fill:#dbdbdb;fill-opacity:1;fill-rule:evenodd;stroke:none;stroke-width:60.00000381;stroke-linecap:butt;stroke-linejoin:miter;stroke-miterlimit:4;stroke-dasharray:none;stroke-dashoffset:0;stroke-opacity:1;color-rendering:auto;image-rendering:auto;shape-rendering:auto;text-rendering:auto;enable-background:accumulate" />
      <path
         sodipodi:nodetypes="ccccc"
         inkscape:connector-curvature="0"
         id="path4857"
         d="m -2432.8297,-3149.3116 324.2581,367.3879 160,22.8572 -393.0674,-451.0225 z"
         style="fill:#dbdbdb;fill-opacity:1;fill-rule:evenodd;stroke:none;stroke-width:1px;stroke-linecap:butt;stroke-linejoin:miter;stroke-opacity:1" />
      <path
         sodipodi:nodetypes="ccccc"
         inkscape:connector-curvature="0"
         id="path4859"
         d="m -3068.5716,-3018.7808 434.2857,308.5714 -139.678,13.1023 -369.0616,-259.4503 z"
         style="fill:#dbdbdb;fill-opacity:1;fill-rule:evenodd;stroke:none;stroke-width:1px;stroke-linecap:butt;stroke-linejoin:miter;stroke-opacity:1" />
      <path
         sodipodi:nodetypes="ccccc"
         inkscape:connector-curvature="0"
         id="path4861"
         d="m -3604.1266,-2776.2094 -74.1404,89.7205 367.968,199.7473 57.8898,-32.0337 z"
         style="fill:#dbdbdb;fill-opacity:1;fill-rule:evenodd;stroke:none;stroke-width:1px;stroke-linecap:butt;stroke-linejoin:miter;stroke-opacity:1" />
      <path
         sodipodi:nodetypes="ccccc"
         inkscape:connector-curvature="0"
         id="path4863"
         d="m -3897.1431,-2393.3522 -33.2458,109.3734 470.8789,66.8977 13.7955,-44.8426 z"
         style="fill:#dbdbdb;fill-opacity:1;fill-rule:evenodd;stroke:none;stroke-width:1px;stroke-linecap:butt;stroke-linejoin:miter;stroke-opacity:1" />
      <path
         sodipodi:nodetypes="ccccc"
         inkscape:connector-curvature="0"
         id="path4865"
         d="m -3925.7145,-1827.638 537.1429,-40 24.4713,47.4968 -559.3662,61.4706 z"
         style="fill:#dbdbdb;fill-opacity:1;fill-rule:evenodd;stroke:none;stroke-width:1px;stroke-linecap:butt;stroke-linejoin:miter;stroke-opacity:1" />
      <path
         sodipodi:nodetypes="ccccc"
         inkscape:connector-curvature="0"
         id="path4867"
         d="m -1886.4077,-3481.8395 417.8361,637.0587 147.9274,-57.7766 -496.4989,-656.5091 z"
         style="fill:#dbdbdb;fill-opacity:1;fill-rule:evenodd;stroke:none;stroke-width:1px;stroke-linecap:butt;stroke-linejoin:miter;stroke-opacity:1" />
      <path
         sodipodi:nodetypes="cccccc"
         inkscape:connector-curvature="0"
         id="path4869"
         d="m -1823.2634,-3876.1253 772.4089,212.9136 90.85426,189.8595 -131.42856,-348.5715 -725.7143,-125.7143 z"
         style="fill:#dbdbdb;fill-opacity:1;fill-rule:evenodd;stroke:none;stroke-width:1px;stroke-linecap:butt;stroke-linejoin:miter;stroke-opacity:1" />
    </g>
    <g
       id="g4935"
       transform="matrix(0.88635536,0,0,0.88635536,-816.86072,197.66663)"
       style="opacity:0.07099998">
      <path
         sodipodi:nodetypes="cccccccccccccccccccccsccccccccccccccccccccccccccccccccccccccccccccccccccccccc"
         inkscape:connector-curvature="0"
         id="path4709-7-5"
         d="m 3064.8638,-2406.7293 55.6445,101.8301 c 1.2026,2.2007 2.4051,4.4013 3.6074,6.6015 48.4902,89.577 89.1364,183.5716 121.9844,280.1621 33.8241,101.5383 58.8794,206.1051 60.3262,310.8106 0.735,72.8394 -11.7707,146.184 -47.5235,206.2695 l -0.066,0.1114 -0.064,0.1113 c -29.536,50.6279 -78.2154,90.8686 -133.0254,114.9258 l -0.01,0 c -43.0748,18.8239 -90.5028,31.0038 -139.2148,44.3789 -137.8168,35.813 -277.7897,66.2316 -417.2149,102.1191 -232.3581,59.3822 -464.2755,129.3269 -683.8906,231.6914 l -0.027,0.014 -0.029,0.014 c -162.6782,76.23965 -319.9968,171.17195 -451.5605,297.98425 -104.1967,100.1614 -189.8986,221.6929 -241.2031,358.59966 -53.4697,140.53988 -69.0306,292.606514 -56.5821,440.478504 14.813,178.494856 66.5796,350.884886 134.3536,513.763676 l 0.01,0.0195 0.01,0.0215 c 0.3207,0.76777 1.2785,4.74469 4.9804,11.29101 3.0012,5.30714 9.5962,12.55742 18.0156,16.9043 1655.9809,1078.9729 -631.76456,-846.9098 789.3811,-1096.93615 l 0.037,-0.01 c 175.8511,-29.457 354.9958,-42.0411 534.6895,-53.7383 l 0.022,0 c 236.8126,-15.2301 475.2657,-25.2421 712.9648,-54.6777 l 0.061,-0.01 0.062,-0.01 c 1337.2718,-175.105 519.5291,-1335.18655 -167.7174,-1770.62235 l -98.0254,-62.1035 z m 158.0683,171.2324 c 773.2259,399.3979 1217.5661,1456.96185 100.1727,1601.96405 l -0.043,0 c -234.4732,29.0338 -471.7298,39.0569 -709.4199,54.3437 l -0.012,0 -0.012,0 c -179.9081,11.7111 -361.1018,24.3452 -540.7656,54.4433 l -0.088,0.016 -0.09,0.016 c -106.5816,18.5129 -214.8387,42.6691 -316.8105,87.99801 l -0.08,0.035 -0.08,0.037 c -821.28245,419.619924 728.0881,1715.95294 -429.5783,1017.7016 -0.2864,-0.68426 0.016,-0.0591 -0.3633,-0.9668 l 0,-0.006 C 1259.598,421.07845 1209.9292,254.58154 1195.8072,84.413224 l 0,-0.0176 0,-0.0176 c -11.816,-140.30823 3.148,-283.508734 52.9004,-414.232424 l 0.027,-0.0723 0.027,-0.0723 c 47.6891,-127.28445 128.0668,-241.71775 226.6485,-336.47445 l 0.014,-0.014 0.016,-0.016 c 125.1002,-120.5823 276.5556,-212.4138 435.3282,-286.8282 l 0.01,0 c 214.4471,-99.95495 442.7474,-168.99775 673.4414,-227.95305 l 0.025,-0.01 0.025,-0.01 c 137.9797,-35.5155 278.0235,-65.9452 417.4238,-102.1719 l 0.2012,-0.053 0.1992,-0.055 c 48.0773,-13.2046 98.544,-25.8686 147.7207,-47.3652 l 0.02,-0.01 0.022,-0.01 c 65.2267,-28.6266 123.7484,-76.2883 160.6738,-139.5137 43.4371,-73.057 56.7105,-157.5067 55.9004,-237.4824 l 0,-0.053 0,-0.053 c -1.5582,-113.739 -28.4928,-224.2718 -63.4239,-329.1172 l -0.029,-0.088 -0.029,-0.088 c -22.9248,-67.4226 -49.6442,-133.6303 -80.0078,-198.1406 z"
         style="color:#000000;font-style:normal;font-variant:normal;font-weight:normal;font-stretch:normal;font-size:medium;line-height:normal;font-family:sans-serif;text-indent:0;text-align:start;text-decoration:none;text-decoration-line:none;text-decoration-style:solid;text-decoration-color:#000000;letter-spacing:normal;word-spacing:normal;text-transform:none;direction:ltr;block-progression:tb;writing-mode:lr-tb;baseline-shift:baseline;text-anchor:start;white-space:normal;clip-rule:nonzero;display:inline;overflow:visible;visibility:visible;opacity:1;isolation:auto;mix-blend-mode:normal;color-interpolation:sRGB;color-interpolation-filters:linearRGB;solid-color:#000000;solid-opacity:1;fill:#000000;fill-opacity:1;fill-rule:evenodd;stroke:none;stroke-width:60.00000381;stroke-linecap:butt;stroke-linejoin:miter;stroke-miterlimit:4;stroke-dasharray:none;stroke-dashoffset:0;stroke-opacity:1;color-rendering:auto;image-rendering:auto;shape-rendering:auto;text-rendering:auto;enable-background:accumulate" />
      <path
         inkscape:connector-curvature="0"
         id="path4914"
         d="m 3321.3814,-1283.1106 c 0,0 16.1624,145.4619 -339.4113,226.2741 -355.5737,80.8122 -355.5737,80.8122 -355.5737,80.8122 l 56.5686,169.7057 c 0,0 129.2995,-16.1625 395.9798,-64.6498 266.6802,-48.4873 501.0356,-299.0052 501.0356,-299.0052 z"
         style="fill:#000000;fill-opacity:1;fill-rule:evenodd;stroke:#000000;stroke-width:1px;stroke-linecap:butt;stroke-linejoin:miter;stroke-opacity:1" />
      <path
         sodipodi:nodetypes="csccscc"
         inkscape:connector-curvature="0"
         id="path4914-9"
         d="m 1542.482,-327.2087 c 0,0 10.1267,-141.24041 349.0233,-275.82262 l 338.8967,-134.58226 -1.2049,-110.48826 c 0,0 -84.8646,27.79163 -340.903,116.75091 -256.0382,88.95927 -432.8761,380.64684 -432.8761,380.64684 z"
         style="fill:#000000;fill-opacity:1;fill-rule:evenodd;stroke:#000000;stroke-width:1px;stroke-linecap:butt;stroke-linejoin:miter;stroke-opacity:1" />
      <path
         inkscape:connector-curvature="0"
         id="path4931"
         d="m 3474.9246,-2010.4205 c 0,0 64.6497,64.6498 48.4873,234.3554 -16.1625,169.7056 -32.3249,282.8427 -32.3249,282.8427 l 210.1117,105.0559 c 0,0 88.8934,-64.6498 32.3249,-290.9239 -56.5685,-226.2742 -258.599,-331.3301 -258.599,-331.3301 z"
         style="fill:#000000;fill-opacity:1;fill-rule:evenodd;stroke:#000000;stroke-width:1px;stroke-linecap:butt;stroke-linejoin:miter;stroke-opacity:1" />
      <path
         inkscape:connector-curvature="0"
         id="path4933"
         d="M 1414.2134,98.778 1551.5941,543.2452 1349.5636,422.0269 1292.9951,50.2907 Z"
         style="fill:#000000;fill-opacity:1;fill-rule:evenodd;stroke:#000000;stroke-width:1px;stroke-linecap:butt;stroke-linejoin:miter;stroke-opacity:1" />
    </g>
    <path
       style="fill:none;fill-rule:evenodd;stroke:#dcdcdc;stroke-width:50.00000447;stroke-linecap:butt;stroke-linejoin:miter;stroke-opacity:0.4509804;stroke-miterlimit:4;stroke-dasharray:none"
       d="m 24.243417,624.0574 c 0,0 711.147393,137.3807 1196.020683,-48.4874 484.8732,-185.868 654.5788,-355.5737 654.5788,-355.5737 0,0 -40.4061,185.8681 226.2742,250.5179 266.6803,64.6497 1139.4521,282.8427 1632.4065,137.3807 C 4226.478,462.433 4371.94,228.0776 4371.94,228.0776 c 0,0 88.8934,250.5178 129.2995,250.5178 40.4061,0 40.4061,0 40.4061,0"
       id="path4946"
       inkscape:connector-curvature="0" />
  </g>
</svg>
